<?xml version="1.0" encoding="utf-8"?>
<!-- Generator: Adobe Illustrator 17.1.0, SVG Export Plug-In . SVG Version: 6.00 Build 0)  -->
<!DOCTYPE svg PUBLIC "-//W3C//DTD SVG 1.1//EN" "https://www.w3.org/Graphics/SVG/1.1/DTD/svg11.dtd">
<svg version="1.1" id="Слой_1" xmlns="https://www.w3.org/2000/svg" xmlns:xlink="https://www.w3.org/1999/xlink" x="0px" y="0px"
	 viewBox="0 0 181.9 128.6" enable-background="new 0 0 181.9 128.6" xml:space="preserve">
<path fill="#FCC200" d="M94.5,103.9c-19,0-33.9-7.2-33.9-16.4v-22L33.7,51c-0.6-0.3-1-1-1-1.6s0.4-1.3,1-1.6l60.2-32.5
	c0.6-0.3,1.2-0.3,1.8,0l60.2,32.5c0.1,0.1,0.2,0.1,0.3,0.2c0.1,0.1,0.2,0.2,0.2,0.2c0.3,0.3,0.4,0.7,0.4,1.2c0,0,0,0,0,0
	c0,0,0,0,0,0s0,0,0,0c0,0,0,0,0,0c0,0,0,0,0,0v14.7L164,86c0.2,0.6,0.1,1.2-0.3,1.7s-0.9,0.8-1.5,0.8h-14.3c-0.6,0-1.2-0.3-1.5-0.8
	s-0.4-1.1-0.3-1.7l7.1-21.9V52.5l-24.8,13.4v21.7C128.4,96.7,113.5,103.9,94.5,103.9z M64.2,67.5v20c0,6.1,12.1,12.7,30.2,12.7
	s30.2-6.5,30.2-12.7V67.9l-29,15.6c-0.6,0.3-1.2,0.3-1.8,0L64.2,67.5z M150.4,84.8h9.2L155,70.5L150.4,84.8z M38.5,49.4l56.3,30.4
	l30.8-16.6c0,0,0,0,0,0l25.4-13.7L94.8,19L38.5,49.4z"/>
</svg>
