<?xml version="1.0" encoding="utf-8"?>
<!-- Generator: Adobe Illustrator 17.1.0, SVG Export Plug-In . SVG Version: 6.00 Build 0)  -->
<!DOCTYPE svg PUBLIC "-//W3C//DTD SVG 1.1//EN" "https://www.w3.org/Graphics/SVG/1.1/DTD/svg11.dtd">
<svg version="1.1" id="Слой_1" xmlns="https://www.w3.org/2000/svg" xmlns:xlink="https://www.w3.org/1999/xlink" x="0px" y="0px"
	 viewBox="0 0 181.9 128.6" enable-background="new 0 0 181.9 128.6" xml:space="preserve">
<path fill="#FCC200" d="M143.9,114H45.5c-1,0-1.9-0.8-1.9-1.9V67.6c0-0.2,0-0.3,0-0.5c0-0.1,0.1-0.3,0.2-0.4L55.2,43
	c0.3-0.6,1-1.1,1.7-1.1h20.4l15.5-14.6v-16c0-1,0.8-1.9,1.9-1.9c0,0,0,0,0,0l0,0h18.8c0.7,0,1.3,0.4,1.6,1s0.3,1.4-0.1,1.9l-2.7,3.8
	l2.6,3.4c0.4,0.6,0.5,1.3,0.2,2s-1,1-1.7,1H96.6v4.7l15.5,14.6h20.4c0.7,0,1.4,0.4,1.7,1.1l11.3,23.8c0.1,0.1,0.1,0.3,0.2,0.4
	c0,0.2,0,0.3,0,0.5v44.6C145.7,113.2,144.9,114,143.9,114z M47.4,110.3H142V69.4h-28.2c-0.5,0-1-0.2-1.3-0.5L94.7,51.1L76.9,68.9
	c-0.3,0.3-0.8,0.5-1.3,0.5H47.4V110.3z M114.6,65.7h26.4l-9.6-20.1h-20c-0.5,0-0.9-0.2-1.3-0.5L96.6,32.4v6.4c0,1-0.8,1.9-1.9,1.9
	s-1.9-0.8-1.9-1.9v-6.4L79.3,45.1c-0.3,0.3-0.8,0.5-1.3,0.5H58l-9.6,20.1h26.4l18.5-18.5c0.7-0.7,1.9-0.7,2.6,0L114.6,65.7z
	 M96.6,18.8h13.2l-1.1-1.5c-0.5-0.6-0.5-1.5-0.1-2.2l1.4-2H96.6V18.8z M138.1,106.5h-11.7c-1,0-1.9-0.8-1.9-1.9V92.9
	c0-1,0.8-1.9,1.9-1.9h11.7c1,0,1.9,0.8,1.9,1.9v11.7C139.9,105.6,139.1,106.5,138.1,106.5z M128.3,102.7h7.9v-7.9h-7.9V102.7z
	 M119.3,106.5h-11.7c-1,0-1.9-0.8-1.9-1.9V92.9c0-1,0.8-1.9,1.9-1.9h11.7c1,0,1.9,0.8,1.9,1.9v11.7
	C121.2,105.6,120.4,106.5,119.3,106.5z M109.5,102.7h7.9v-7.9h-7.9V102.7z M100.5,106.5H88.9c-1,0-1.9-0.8-1.9-1.9V92.9
	c0-4.2,3.4-7.7,7.7-7.7c4.2,0,7.7,3.4,7.7,7.7l0,11.7c0,0.5-0.2,1-0.5,1.3C101.5,106.3,101,106.5,100.5,106.5z M90.7,102.7h7.9
	l0-9.8c0-2.2-1.8-4-4-4c-2.2,0-4,1.8-4,4V102.7z M81.7,106.5H70c-1,0-1.9-0.8-1.9-1.9V92.9c0-1,0.8-1.9,1.9-1.9h11.7
	c1,0,1.9,0.8,1.9,1.9v11.7C83.6,105.6,82.7,106.5,81.7,106.5z M71.9,102.7h7.9v-7.9h-7.9V102.7z M63,106.5H51.3
	c-1,0-1.9-0.8-1.9-1.9V92.9c0-1,0.8-1.9,1.9-1.9H63c1,0,1.9,0.8,1.9,1.9v11.7C64.8,105.6,64,106.5,63,106.5z M53.2,102.7h7.9v-7.9
	h-7.9V102.7z M138.1,88.1h-11.7c-1,0-1.9-0.8-1.9-1.9V74.6c0-1,0.8-1.9,1.9-1.9h11.7c1,0,1.9,0.8,1.9,1.9v11.7
	C139.9,87.3,139.1,88.1,138.1,88.1z M128.3,84.4h7.9v-7.9h-7.9V84.4z M119.3,88.1h-11.7c-1,0-1.9-0.8-1.9-1.9V74.6
	c0-1,0.8-1.9,1.9-1.9h11.7c1,0,1.9,0.8,1.9,1.9v11.7C121.2,87.3,120.4,88.1,119.3,88.1z M109.5,84.4h7.9v-7.9h-7.9V84.4z M81.7,88.1
	H70c-1,0-1.9-0.8-1.9-1.9V74.6c0-1,0.8-1.9,1.9-1.9h11.7c1,0,1.9,0.8,1.9,1.9v11.7C83.6,87.3,82.7,88.1,81.7,88.1z M71.9,84.4h7.9
	v-7.9h-7.9V84.4z M63,88.1H51.3c-1,0-1.9-0.8-1.9-1.9V74.6c0-1,0.8-1.9,1.9-1.9H63c1,0,1.9,0.8,1.9,1.9v11.7
	C64.8,87.3,64,88.1,63,88.1z M53.2,84.4h7.9v-7.9h-7.9V84.4z M94.7,76.8c-4.6,0-8.4-3.8-8.4-8.4s3.8-8.4,8.4-8.4s8.4,3.8,8.4,8.4
	S99.3,76.8,94.7,76.8z M94.7,63.7c-2.6,0-4.7,2.1-4.7,4.7s2.1,4.7,4.7,4.7s4.7-2.1,4.7-4.7S97.3,63.7,94.7,63.7z"/>
</svg>
