<?xml version="1.0" encoding="utf-8"?>
<!-- Generator: Adobe Illustrator 17.1.0, SVG Export Plug-In . SVG Version: 6.00 Build 0)  -->
<!DOCTYPE svg PUBLIC "-//W3C//DTD SVG 1.1//EN" "https://www.w3.org/Graphics/SVG/1.1/DTD/svg11.dtd">
<svg version="1.1" id="Слой_1" xmlns="https://www.w3.org/2000/svg" xmlns:xlink="https://www.w3.org/1999/xlink" x="0px" y="0px"
	 viewBox="0 0 205.5 205.5" enable-background="new 0 0 205.5 205.5" xml:space="preserve">
<path fill="#FFFFFF" d="M165.2,59.1c-3.8-2.5-5.7-2.7-10.6-3.9c0.7-4-0.5-12.3-0.7-16.1l-0.5-12.2c-0.3-3.8,0.8-1.8-1.2-3.7
	C149.9,27.8,138,41,134,45.4c-2,2.3-2.9,2.7-4.7,4.7c-14.4,15.2-26.2,17-45,23c-4.9,1.6-9,3.1-13.8,4.4c-4.8,1.3-10.5,2.8-14.5,4.5
	c1.6,7.7,2.6,54.6,4.5,63.1l14-4.1c13.1-4.2,34.5-11.9,45.7-11.9c12,0,31.4,8.3,40.9,14.3c0.7-3.9-0.5-12.4-0.7-16.1
	c-0.4-5.1-1.1-10.8-1-15.9c6.7-7.5,13-13.4,15.6-23.6C177.9,75.3,172.8,64.2,165.2,59.1"/>
<path fill="#FFFFFF" d="M18.6,111.6c-2.8,11-3.4,18,1.2,27.1c7.3,14.6,33.9,9.5,34.9,8.1l-4.1-63C39.3,86.4,21.7,99.1,18.6,111.6"/>
<path fill="#FFFFFF" d="M85.4,141.9c-6.2,2.7-19.2,5.6-23.7,7.6L81,182.3c3.9,0,18.2-6.3,23.5-6.7c0-3.2-11.8-21.2-14.2-25
	L85.4,141.9z"/>
<path fill="#FFFFFF" d="M194.5,61.6c-1.5-5.1-6.3-11.2-9.8-14.6c-3.1-3.1-9-7.3-14.6-5.3l-2.5,6.7c9,5.7,17.2,9.3,19,23
	c3.2,24.2-15.4,33.9-12.6,39.8c3.9,8,17-10.8,19.7-21.6C196.8,77.3,197.7,72.6,194.5,61.6"/>
</svg>
