<?xml version="1.0" encoding="utf-8"?>
<!-- Generator: Adobe Illustrator 17.1.0, SVG Export Plug-In . SVG Version: 6.00 Build 0)  -->
<!DOCTYPE svg PUBLIC "-//W3C//DTD SVG 1.1//EN" "https://www.w3.org/Graphics/SVG/1.1/DTD/svg11.dtd">
<svg version="1.1" id="Слой_1" xmlns="https://www.w3.org/2000/svg" xmlns:xlink="https://www.w3.org/1999/xlink" x="0px" y="0px"
	 viewBox="0 0 205.5 205.5" enable-background="new 0 0 205.5 205.5" xml:space="preserve">
<path fill="#FFFFFF" d="M60.7,157.1l8.6-9.5c1.4-1.5,7.7-8.9,9-9.1l31,0c1.3,0.2,5.7,11.8,6.5,13.6c0.6,1.6,1.7,3.3,1.9,4.9
	c-1.9,2.4-14.9,14.7-16.8,17.3l-31.6,0C68.8,174.2,61.3,158.7,60.7,157.1 M105.9,181.8l-0.6-3.7l18-18.3c0.7-0.6,2.1-1.3,3.1-1.9
	l25.3-14.5c1.5,0.7,2.4,2,4,2.5c-3.1,7.7-4.5,8.1-9.7,13.1c-3.5,3.3-7.8,6.4-12,9.3C128.3,172.5,114.3,180.1,105.9,181.8 M28.3,146
	l5.2-2.6l17.9,14.3c3.5,3,3.5,4.8,6.1,9.8l5.1,10.6l-2.3,3.6c-6.3-0.5-18.5-10.1-21.4-13.1C33.5,163,27,155.5,28.3,146 M26.6,140.1
	c-1.1-1.2-2.1-3.2-3.1-4.7c-2.5-3.8-1.7-14.9-1.2-20.3c0.8-7.9,5.3-26.3,9.9-32.8l2.1,0.5c0.8,7.6,3,15.5,3.8,23.1
	c0.2,2.1-5.3,27.4-6.3,31.6L26.6,140.1z M156.7,137.1c1.4-5.4,3.2-11,4.7-16.4c4.4-15.3,2.6-12.4,13.2-27.8l5.9-9
	c1-1.4,1.3-1.4,3-1.5c1.3,6.4-3.3,24.7-6.5,32.7c-2.1,5.4-7,16.5-11.3,20.3c-1.8,1.6-3.4,3.4-5.4,4.6
	C158.9,139.3,157.5,138.2,156.7,137.1 M94,76.1l30.8,0.1l8.9,27.3l-22.1,28l-31.8,0l-4.2-14.1c-0.7-2.4-1.4-4.5-2.1-6.9
	c-0.5-1.7-1.8-5.3-1.9-7.1L94,76.1z M132.6,76.9c-1.3-4-1.9-3.8-0.5-5.8l12.6-18.5c0.3-0.3,0.5-0.5,0.8-0.8l21.8,2.3l8.5,26.5
	l-14.5,22.1l-21.1-2.2L132.6,76.9z M85.6,51.8l2.6,13.2c0.4,2.1,0.9,4.2,1.2,6.4c0.2,1.6-0.2,1.6-1.3,2.9l-21.5,26.2l-21.7,2.2
	c-0.9-1.6-3.9-22-3.7-22.4c0-0.1,20.3-25,21.7-26L85.6,51.8z M126,22.6c7.5-1.2,5.8-3.3,16.4,0c5,1.5,8.8,3.2,12.9,5.6
	c5.4,3.1,16.6,12.4,18.1,17.4c-3.9,2.1-2.9,1.7-7.2,1.3c-5.4-0.5-19-1.3-22.1-3.4L124,30.8L126,22.6z M60.6,45.3
	c5.2-4,6.9-5.8,12.9-9.6c9.4-5.9,19.5-10.6,30-13.2c12.5-3.2,8.7-1.2,16.1,0.1l-2.1,8.2c-4.1,1.6-9.2,4.4-13.4,6.3
	c-22.7,10.6-12.3,7.2-37.6,9.8C62.9,47.3,62.3,47.6,60.6,45.3 M117.2,13.5C92,16,70.2,27.8,50.5,46.7c-27.5,26.4-41.7,68.6-33,98.6
	c3.4,11.7,6.1,16.1,12.6,25c1.6,2.2,7.9,7.8,9.9,9.3c3.6,2.8,7.7,5.1,12.4,7.2c20,8.9,47.3,6.9,70.9-5.3c16.1-8.3,29-18.5,40.7-32.8
	c3.6-4.3,7.4-9.7,10.6-15c17.9-30.2,20.6-62.3,8.3-87.1c-3.7-7.5-6.9-11-12.2-16.4C158.8,17.8,137.6,11.4,117.2,13.5"/>
</svg>
