<?xml version="1.0" encoding="utf-8"?>
<!-- Generator: Adobe Illustrator 17.1.0, SVG Export Plug-In . SVG Version: 6.00 Build 0)  -->
<!DOCTYPE svg PUBLIC "-//W3C//DTD SVG 1.1//EN" "https://www.w3.org/Graphics/SVG/1.1/DTD/svg11.dtd">
<svg version="1.1" id="Слой_1" xmlns="https://www.w3.org/2000/svg" xmlns:xlink="https://www.w3.org/1999/xlink" x="0px" y="0px"
	 viewBox="0 0 205.5 205.5" enable-background="new 0 0 205.5 205.5" xml:space="preserve">
<path fill="#FFFFFF" d="M88,90c2,2.5,3.7,6.1,6.2,6.1c1.8,0,3.4-1.8,3.3-3.3c-0.1-2.1-5.7-7-6.9-9.9l5.1-4.1c0.1,1.6,0,1.2-0.5,3.3
	c2.8,0,4.7-1.6,6.5-2.9l3-1.8c3.8-1.8,9.3-1.6,8.4,4.1c4.2-0.9,4.1-2.7,5.1,0.5l-7.9,3.2c0.4-1.5,0.5-3,0.1-3.9
	c-1.5-3.6-5-1.3-7.1,0.1c-3.7,2.3-4.3,3.6-7.9,3.6c1.5,3.5,5.4,4.6,4.4,8.6c-0.9,3.4-6.2,7.4-9.8,2.7c-0.8-1.1-1.5-2-2.4-3.1
	c-0.7-0.9-4.1-5.8-5.1-6.1c-1.1,2.1-5.6,4-4,12.4c0.2,1,0.4,1.4,0.6,2.3c1,3.8,3.5,8.3,8.3,8.3c4.1,0,8.5-3.6,10.7-6.3
	c5.2-6.5,6.3-3.7,10.8-6.3c0.3-1.1,0.4-1.3,0.1-1.6c-1.7-1.9-1.7-2-1-4.8c3.9-1.8,7.8-3.6,11.7-5.4c0.6,2,1.1,1.9,3.4,1.9
	c0.6,0,9.3-5,10-5.5c2.7-1.5,6.3-3.1,7-4.7c0.9-2.2,0.5-1,2.5-1c0.9,0,4.9-3.5,6.1-3.5c0.9,0,0.1,0.2,1.2,0.5c1-1.1,1.8-1.6,0.9-4
	c-0.4-1.1-2.3-2.8-3,0.2c-1.1,0.2-2.3,0.5-3.3,0.8c-7.2,1.7-1.3,1.1-5.7,2.9l-15.2,6.3l-3-8.6c-0.5-0.9-1.4-1.6-3-1.6h-16.7
	c-2.4,0-6,3.5-9.1,6C81.6,83.7,81.7,81.9,88,90"/>
<path fill="#FFFFFF" d="M126.8,172l14.2-26.6c0.6-2.4-2.9-3.8-4.7-1.2l-12.6,23.4h-15.6l-0.7-22.7c-0.2-3.1-4.5-2.6-5.3,0.5
	c-0.3,1,0.6,23.1,0.7,25.9c0.1,4.5,0.4,3.9-2.5,10h24.4C125.7,176.6,123.5,178.2,126.8,172"/>
<path fill="#FFFFFF" d="M50.1,143.2c-1.4,0.7-2.3,3-3.2,4.7c-0.5,1-0.8,1.6-1.3,2.5l-7.1,13.4c-2.4,4.6-1.7,3.8-3.9,3.8
	c-2.6,0-12.1-0.4-13.8,0.3c0.1-0.9,0-1.3,0-1.9l-0.4-13.2c0-1.7,0.1-8.1-0.7-9.2c-1.4-1.8-4.3-0.3-4.7,1.6c-0.4,1.6-0.1,2.5-0.1,3.7
	c0,1.3,0,2.6,0.1,3.8c0.4,5.7,0.2,12.9,0.6,18.7c0.4,6.5-0.6,4.2-2.5,9.9h24.4l0.3-4.5c0.1-2.4,4.9-10.5,6.4-13.4
	c1.5-2.8,3.1-5.8,4.7-8.8c1.1-2,4.3-7.8,4.7-9.5C54,143,51.9,142.3,50.1,143.2"/>
<path fill="#FFFFFF" d="M92.5,144.2c-0.5,0.7-1.4,2.5-1.8,3.3l-8.9,16.8c-0.4,0.8-1.3,2.5-1.9,3.3H64.3l-0.7-22.7
	c-0.2-3.1-4.5-2.6-5.3,0.5c-0.4,1.4,1.1,28.7,0.8,29.7l-2.6,6.2h24.4c0.2-0.9,0.1-1.3,0.2-2.3c0-0.9,0.1-1.6,0.2-2.5
	c0-1,0-1.1,0.6-2.1c0.4-0.7,0.7-1.4,1.2-2.3c1.6-3,3.1-5.8,4.7-8.8c1.6-3.1,3-5.8,4.7-8.8l4.8-9C97.8,142.9,94.4,141.6,92.5,144.2"
	/>
<path fill="#FFFFFF" d="M109.7,66.8c3.5,0.4,9.6-2.6,11.2-8.8c0.6-2.6-0.1-4.3-1.2-5.8l-0.6-0.6c-4.5-4.2-13.9-0.1-15.5,6.6
	c-0.2,0.9-0.2,2.6-0.1,3.3C104,64.5,106.4,66.4,109.7,66.8"/>
<path fill="#FFFFFF" d="M66.8,157.4c-0.6,2.5-0.7,4.2,0.7,6.1c3.7,4.7,13.3,1.4,14.8-4.8c0.6-2.4,0.9-4.8-0.9-6.4
	C75.9,146.8,67.9,153.1,66.8,157.4"/>
<path fill="#FFFFFF" d="M110.6,157.4c-0.6,2.5-0.7,4.2,0.7,6.1c3.7,4.7,13.3,1.4,14.8-4.8c0.6-2.4,0.9-4.8-0.9-6.4
	C119.7,146.8,111.7,153.1,110.6,157.4"/>
<path fill="#FFFFFF" d="M27.1,152.4c-1.5,1.2-3.2,2.5-3.7,4.8l-0.3,1.3c-1,3.8,1.7,7.2,5.6,7.2c11.6,0,14.9-15.5,3.9-15.5
	C30.5,150.2,28.7,151.2,27.1,152.4"/>
<path fill="#FFFFFF" d="M160,127.4c-1,1.5-4.5,6.6-6,6.6c-1.7,0-0.7-9.6-0.5-11.1c3.1,1.8,3.3,2,8.1,2
	C161,125.7,160.6,126.5,160,127.4 M194.4,91c-2.7-3.5-3.7-2.2-4.2-4c-0.1-0.4-0.2-0.8-0.3-1.3c-0.3-1-0.6-1.6-0.9-2.4
	c-1.3-3.1-3.4-5.3-6.1-7.3c-6.8-5.1-19.4-4.7-28.5,1.4c-2.4,1.6-5,3.6-6.9,5.7c-2.4,2.7-0.8,0.7-5.4,2.7
	c-5.2,2.3-10.8,7.6-12.2,13.5c-0.7,2.9-0.5,5.6,0.1,7.5c0.7,2.1,1.1,2.4,2.3,3.7c0.6,0.6,0.3,0.7,1.4,0.9c-0.4,1.2-1,1.9-1.3,3.2
	c-1.7,6.8,3.8,9.4,10.7,9.4c1.9,0,3.3-0.6,5-0.7c0.2,0.7,0.4,3.2,0.2,4.2c-0.3,1.3-1.3,3.7-1.7,4.9c-0.8-0.5-1.4-0.7-2.3-1.2
	c-0.9-0.4-1.3-0.7-2.3-1.2c-0.9-0.4-1.4-0.8-2.3-1.2c-2.3-1-1.8-2-3,3c0,0.2,0.2,0.7,0.6,1.3h10h2.7l-0.7,2.7l-1.3,5.4l-0.7,2.7
	h-2.7h-2c-1.2,3.7-3.4,9.6-4.2,12.2c-1.5,4.7-3.7,9.8-4.9,14.8h20.9c0.7-2.9,3.7-25.2,4.4-29.6c0.6-4,2.3-5.6,5.1-10.3
	c0.5-0.8,0.9-1.5,1.4-2.4c0.6-1,1.1-1.6,1.5-2.6c3.4,0,5.8-0.8,8.1-2.2c3.2-1.9,4.6-4.2,5.4-7.6c3.1-0.1,7.4-2.6,9.9-4.7
	C196.7,105.8,198.9,96.8,194.4,91"/>
<path fill="#FFFFFF" d="M146.4,135.7h-44.9c2.3-9.3,5.9-25.2,8.7-33.8l3.8-10.7c-1.1,0.2-2.7,0.9-3.6,1.3c-0.3,2,1.1,4.4,0.9,5.4
	c-0.6,2.6-4.6,2.8-6.9,3.5c-2.3,0.8-3.6,2.7-5.7,5.3h3.3l-7.2,28.9h-3.3l7.1-28.7c-0.7,0.2-0.4,0.2-0.9,0.6
	c-0.3,0.3-0.5,0.4-0.8,0.7l-2,1.3c-1.2,0.7-3.3,1.8-4.5,2l-6,24.1H53.1l12.8-51.2c0.2-0.8,4.7-4,5.6-4.8L89.1,66
	c1.7-0.5,5.7,1.2,6.7-2.7c0.3-1.4-0.3-2.7-1.8-2.7h-8.8c-3.1,0-5.6,5.4-0.5,5.4L67,80c0.3-1.6,0.5-2,0.5-3.3l-1.8-0.3
	c-2.3,2.5-1.6,5-2.4,6.4L50.4,93.2c-2.2,1.8-4.2,3.3-6.5,5.1c-1,0.8-6.1,4.5-6.3,5.3c-0.3,1.4-0.2,1.6,1.2,1.6c0.8,0,2.4-1.5,3-2.1
	l20.3-15.9l-12.1,48.5H11.8l-1.3,5.4h134.6L146.4,135.7z"/>
<path fill="#FFFFFF" d="M68.5,84.9l-5.3,21.4c0.4-0.3,0.8-0.6,1.2-0.9c6.6-5.5,8.8-14.4,4.3-20.3C68.6,85,68.5,84.9,68.5,84.9"/>
<path fill="#FFFFFF" d="M35.8,119c-0.6,0.8-1,1.6-1.6,2.5c-1,1.5-4.5,6.6-6,6.6c-1.7,0-0.7-9.6-0.5-11.1C30.9,118.8,31,119,35.8,119
	 M15.8,133.1h17.5c0.8-2.6,2.4-4.4,4.6-8.2c0.5-0.8,0.9-1.5,1.4-2.4c0.6-1,1.1-1.6,1.6-2.6c3.4,0,5.8-0.8,8.1-2.2
	c1.7-1,2.9-2.1,3.7-3.5l5.2-20.7L43.3,105l0,0c-0.1,0.1-0.3,0.2-0.4,0.3c-1.2,1-2.9,2.5-4.8,2.5c-1.4,0-2.3-0.2-3-1.1h0
	c-0.7-0.9-0.6-1.8-0.3-3.2c0.4-1.8,4.6-4.9,6.8-6.5c0.2-0.2,0.4-0.3,0.8-0.6l6.5-5.1l0,0l12-9.5l0.1-0.5c0.2-1.4,0.5-3.1,1.7-4.9
	c-1.3-2.6-3.3-4.6-5.6-6.4c-6.8-5.1-19.4-4.7-28.5,1.4c-2.4,1.6-5,3.6-6.9,5.7c-2.4,2.7-0.8,0.7-5.4,2.7C11,82.2,5.5,87.5,4,93.4
	c-0.7,2.9-0.5,5.6,0.1,7.5c0.7,2.1,1.1,2.4,2.3,3.7c0.6,0.6,0.3,0.7,1.4,0.9c-0.4,1.2-1,1.9-1.3,3.2c-1.7,6.8,3.8,9.4,10.7,9.4
	c1.9,0,3.3-0.6,5-0.7c0.2,0.7,0.4,3.2,0.2,4.2c-0.3,1.3-1.3,3.7-1.7,4.9c-0.8-0.5-1.4-0.7-2.3-1.2c-0.9-0.4-1.3-0.7-2.3-1.2
	c-0.9-0.4-1.4-0.8-2.3-1.2c-2.3-1-1.8-2-3,3C10.6,126.5,13.8,130.4,15.8,133.1"/>
</svg>
