<?xml version="1.0" encoding="utf-8"?>
<!-- Generator: Adobe Illustrator 17.1.0, SVG Export Plug-In . SVG Version: 6.00 Build 0)  -->
<!DOCTYPE svg PUBLIC "-//W3C//DTD SVG 1.1//EN" "https://www.w3.org/Graphics/SVG/1.1/DTD/svg11.dtd">
<svg version="1.1" id="Слой_1" xmlns="https://www.w3.org/2000/svg" xmlns:xlink="https://www.w3.org/1999/xlink" x="0px" y="0px"
	 viewBox="0 0 214.3 198" enable-background="new 0 0 214.3 198" xml:space="preserve">
<path fill="#FCC200" d="M109.3,135.7c-19.3,0.6-37.9-16.6-36.8-38.8c0.9-17.3,16.2-35.9,39.1-34.6c17,0.9,35.6,16.1,34.4,39.2
	C145,119.1,129.6,136.1,109.3,135.7 M109.3,52.4C83,52.8,63.2,73,62.7,98.1c-0.5,27.3,20.7,47.2,45.7,47.6
	c27.1,0.4,47.1-20.6,47.4-45.9C156.1,73,135.2,52.7,109.3,52.4"/>
<path fill="#FCC200" d="M109.1,38.8c3.1,0,5.1-2.1,5.2-5.6c0-4.3,0-8.6,0-12.9c0-4.2,0.1-8.4-0.1-12.7c0-1.4-0.4-2.9-1.2-4.1
	c-1.2-2-3.3-2.2-5.4-1.7c-1.8,0.4-3.3,2.8-3.3,5.3c0,8.8-0.1,17.6,0,26.4C104.4,36.8,106.3,38.8,109.1,38.8"/>
<path fill="#FCC200" d="M47.1,102.9c2-1.2,2.3-3.3,1.8-5.4c-0.4-1.8-2.7-3.4-5-3.4C35,94,26,94,17.1,94.1c-3.2,0-5.1,2-5.1,4.7
	c-0.1,3.2,1.9,5.2,5.5,5.2c4.3,0.1,8.6,0,12.9,0c4.3,0,8.6,0.1,12.9,0C44.5,103.9,46,103.6,47.1,102.9"/>
<path fill="#FCC200" d="M206.5,97.4c-0.9-2.2-2.8-3.3-5.1-3.3c-8.9-0.1-17.8-0.1-26.7,0c-3.1,0-5.2,2-5.3,4.6
	c-0.1,3.3,2,5.3,5.7,5.4c4.2,0,8.4,0,12.7,0c4.3,0,8.6,0.1,12.9,0c1.3,0,2.8-0.3,4-1C206.6,101.8,207.3,99.3,206.5,97.4"/>
<path fill="#FCC200" d="M114.2,165.3c0-1.4-0.4-2.9-1.1-4.1c-1.2-2-3.4-2.3-5.4-1.7c-2.3,0.7-3.3,2.8-3.4,5
	c-0.1,8.9-0.1,17.8,0,26.7c0,3.2,2,5.2,4.8,5.3c3.2,0,5.1-2,5.1-5.6c0.1-4.3,0-8.6,0-12.9C114.3,173.7,114.3,169.5,114.2,165.3"/>
<path fill="#FCC200" d="M59.5,56.3c1.6,1.6,4.4,2,6,1.1c3.7-2.1,3.1-6,0.9-8.3C60.2,42.9,54,36.7,47.6,30.5c-0.9-0.9-2.3-1.3-3.5-2
	c-2.3,0.2-3.9,1-4.7,3c-1,2.2-0.4,4.3,1.2,6C46.9,43.8,53.2,50.1,59.5,56.3"/>
<path fill="#FCC200" d="M159.4,56c6.1-6.1,12.2-12.1,18.2-18.3c1-1,1.6-2.5,2.4-3.8c-0.3-2.4-1.2-4-3.1-4.8
	c-2.1-0.9-4.2-0.4-5.8,1.2c-6.4,6.3-12.7,12.6-19.1,19c-1.6,1.6-2,4.4-1,6C152.8,58.5,156.5,58.8,159.4,56"/>
<path fill="#FCC200" d="M65.3,140.5c-2-0.9-4.1-0.3-5.6,1.2c-6.5,6.3-12.9,12.7-19.2,19.2c-2.6,2.6-1.8,6.5,1.1,8
	c1.9,0.9,4.5,0.4,6.3-1.4c6.1-6.1,12.3-12.2,18.4-18.4c1-1,1.5-2.6,2.2-3.9C68.3,142.7,66.9,141.3,65.3,140.5"/>
<path fill="#FCC200" d="M159,141.8c-2.1-2.1-5.5-2-7.2-0.2c-1.7,1.8-1.8,5.1,0.2,7.1c6.3,6.5,12.7,12.9,19.2,19.2
	c1.6,1.5,3.6,2,5.8,1.1c1.8-0.8,2.8-2.2,3-4.4c-0.6-1.2-0.9-2.7-1.8-3.6C171.7,154.4,165.4,148.1,159,141.8"/>
</svg>
