<?xml version="1.0" encoding="utf-8"?>
<!-- Generator: Adobe Illustrator 17.1.0, SVG Export Plug-In . SVG Version: 6.00 Build 0)  -->
<!DOCTYPE svg PUBLIC "-//W3C//DTD SVG 1.1//EN" "https://www.w3.org/Graphics/SVG/1.1/DTD/svg11.dtd">
<svg version="1.1" id="Слой_1" xmlns="https://www.w3.org/2000/svg" xmlns:xlink="https://www.w3.org/1999/xlink" x="0px" y="0px"
	 viewBox="0 0 214.3 198" enable-background="new 0 0 214.3 198" xml:space="preserve">
<g>
	<defs>
		<rect id="SVGID_1_" x="16.2" y="8.7" width="186.6" height="180.3"/>
	</defs>
	<clipPath id="SVGID_2_">
		<use xlink:href="#SVGID_1_"  overflow="visible"/>
	</clipPath>
	<path clip-path="url(#SVGID_2_)" fill="#FCC200" d="M112.2,189c-0.9,0-1.8-0.5-2.3-1.3c-21.2-33.8-49.1-51.5-59.2-57.1v0.7
		c0,1.5-1.2,2.7-2.7,2.7h-29c-1.5,0-2.7-1.2-2.7-2.7V63.8c0-1.5,1.2-2.7,2.7-2.7h29c1.5,0,2.7,1.2,2.7,2.7v3.3
		c10.1-5.6,38-23.3,59.2-57.1c0.6-1,1.9-1.5,3.1-1.2c1.2,0.3,2,1.4,2,2.6v50.2c12.8,7.4,20.7,21,20.7,35.9s-7.9,28.5-20.7,35.9v52.8
		c0,1.2-0.8,2.3-2,2.6C112.7,189,112.4,189,112.2,189z M50.6,124.4c7,3.6,35.3,19.4,58.8,52.9V132c0-0.1,0-0.2,0-0.3V63.4
		c0-0.1,0-0.2,0-0.3V20.4C85.9,53.9,57.7,69.7,50.6,73.3V124.4z M21.6,128.6h23.6V66.5H21.6V128.6z M114.9,98.8V127
		c9.5-6.7,15.2-17.6,15.2-29.5c0-11.8-5.7-22.8-15.2-29.5V98.8z M184.6,155.3c-0.5,0-1-0.1-1.4-0.4c-1.3-0.8-1.7-2.5-0.9-3.7
		c9.8-16.2,15-34.7,15-53.6c0-17.8-4.6-35.5-13.4-51c-0.7-1.3-0.3-3,1-3.7c1.3-0.7,3-0.3,3.7,1c9.3,16.3,14.1,34.9,14.1,53.7
		c0,19.9-5.5,39.4-15.8,56.5C186.4,154.9,185.5,155.3,184.6,155.3z M173,131.2c-0.3,0-0.7-0.1-1-0.2c-1.4-0.5-2.1-2.1-1.5-3.5
		c3.8-9.6,5.7-19.7,5.7-30c0-10.3-1.9-20.3-5.6-29.9c-0.5-1.4,0.1-3,1.5-3.5c1.4-0.5,3,0.1,3.5,1.5c4,10.2,6,20.9,6,31.9
		c0,11-2,21.7-6,31.9C175.1,130.6,174.1,131.2,173,131.2z M156.1,115.6c-0.2,0-0.4,0-0.7-0.1c-1.5-0.4-2.4-1.8-2-3.3
		c1.2-4.8,1.8-9.7,1.8-14.7c0-4.4-0.5-8.8-1.4-13c-0.3-1.5,0.6-2.9,2.1-3.2c1.5-0.3,2.9,0.6,3.2,2.1c1,4.7,1.5,9.4,1.5,14.2
		c0,5.4-0.7,10.8-1.9,16C158.4,114.8,157.3,115.6,156.1,115.6z M61.4,86.7c-1.1,0-2.2-0.7-2.6-1.8c-0.5-1.4,0.2-3,1.6-3.5l0,0
		c0.2-0.1,16.8-6.2,33.2-24.7c1-1.1,2.7-1.2,3.8-0.2c1.1,1,1.2,2.7,0.2,3.8C80.3,79.9,63,86.2,62.3,86.5
		C62,86.6,61.7,86.7,61.4,86.7z"/>
</g>
</svg>
